…
## Exercise 1: `singer`

The package `singer` comes with two smallish data frames about songs. Let's take a look at them (after minor modifications by renaming and shuffling):


```r
(time <- as_tibble(songs) %>% 
   rename(song = title))
```

```
## # A tibble: 22 x 3
##    song                             artist_name      year
##    <chr>                            <chr>           <int>
##  1 Corduroy                         Pearl Jam        1994
##  2 Grievance                        Pearl Jam        2000
##  3 Stupidmop                        Pearl Jam        1994
##  4 Present Tense                    Pearl Jam        1996
##  5 MFC                              Pearl Jam        1998
##  6 Lukin                            Pearl Jam        1996
##  7 It's Lulu                        The Boo Radleys  1995
##  8 Sparrow                          The Boo Radleys  1992
##  9 Martin_ Doom! It's Seven O'Clock The Boo Radleys  1995
## 10 Leaves And Sand                  The Boo Radleys  1993
## # … with 12 more rows
```
…
2. Go ahead and add the corresponding albums to the `time` tibble, being sure to preserve rows even if album info is not readily available.


```r
time %>% 
  left_join(album, by = c("song", "artist_name")) %>% 
  select(-city)
```

```
## # A tibble: 22 x 4
##    song                      artist_name     year album                    
##    <chr>                     <chr>          <int> <chr>                    
##  1 Corduroy                  Pearl Jam       1994 <NA>                     
##  2 Grievance                 Pearl Jam       2000 Binaural                 
##  3 Stupidmop                 Pearl Jam       1994 Vitalogy                 
##  4 Present Tense             Pearl Jam       1996 No Code                  
##  5 MFC                       Pearl Jam       1998 Live On Two Legs         
##  6 Lukin                     Pearl Jam       1996 Seattle Washington Novem…
##  7 It's Lulu                 The Boo Radle…  1995 Best Of                  
##  8 Sparrow                   The Boo Radle…  1992 Everything's Alright For…
##  9 Martin_ Doom! It's Seven… The Boo Radle…  1995 <NA>                     
## 10 Leaves And Sand           The Boo Radle…  1993 <NA>                     
## # … with 12 more rows
```
…
5. You've come across these two tibbles, and just wish all the info was available in one tibble. What would you do?


```r
time %>% 
  full_join(album, by = c("song", "artist_name")) 
```

```
## # A tibble: 23 x 5
##    song                artist_name     year city        album              
##    <chr>               <chr>          <int> <chr>       <chr>              
##  1 Corduroy            Pearl Jam       1994 <NA>        <NA>               
##  2 Grievance           Pearl Jam       2000 Seattle, WA Binaural           
##  3 Stupidmop           Pearl Jam       1994 Seattle, WA Vitalogy           
##  4 Present Tense       Pearl Jam       1996 Seattle, WA No Code            
##  5 MFC                 Pearl Jam       1998 Seattle, WA Live On Two Legs   
##  6 Lukin               Pearl Jam       1996 Seattle, WA Seattle Washington…
##  7 It's Lulu           The Boo Radle…  1995 Liverpool,… Best Of            
##  8 Sparrow             The Boo Radle…  1992 Liverpool,… Everything's Alrig…
##  9 Martin_ Doom! It's… The Boo Radle…  1995 <NA>        <NA>               
## 10 Leaves And Sand     The Boo Radle…  1993 <NA>        <NA>               
## # … with 13 more rows
```
…
